…
```r
library(dplyr)

stepsPerDay <- data %>%
  na.omit() %>%
  group_by(date) %>%
  summarize(steps = sum(steps))
  
stepsPerDay
```

```
## # A tibble: 53 x 2
##    date       steps
##    <date>     <int>
##  1 2012-10-02   126
##  2 2012-10-03 11352
##  3 2012-10-04 12116
##  4 2012-10-05 13294
##  5 2012-10-06 15420
##  6 2012-10-07 11015
##  7 2012-10-09 12811
##  8 2012-10-10  9900
##  9 2012-10-11 10304
## 10 2012-10-12 17382
## # … with 43 more rows
```
…
## What is the average daily activity pattern?
Calculate the average steps taken across each day on each 5 min interval (ignoring missing values)

```r
stepsPerInterval <- data %>%
  na.omit() %>%
  group_by(interval) %>%
  summarize(averageSteps = mean(steps))

stepsPerInterval  
```

```
## # A tibble: 288 x 2
##    interval averageSteps
##       <int>        <dbl>
##  1        0       1.72  
##  2        5       0.340 
##  3       10       0.132 
##  4       15       0.151 
##  5       20       0.0755
##  6       25       2.09  
##  7       30       0.528 
##  8       35       0.868 
##  9       40       0     
## 10       45       1.47  
## # … with 278 more rows
```
…
